newmtl mannequin:mat15
illum 4
Kd 0.81 0.85 0.86
Ka 0.40 0.40 0.40
Tf 1.00 1.00 1.00
Ni 1.00
newmtl mannequin:mat21
illum 4
Kd 1.00 1.00 1.00
Ka 0.40 0.40 0.40
Tf 1.00 1.00 1.00
Ni 1.00
newmtl mannequin:mat24
illum 4
Kd 0.62 0.62 0.62
Ka 0.40 0.40 0.40
Tf 1.00 1.00 1.00
Ni 1.00
